none 0 0 0 0 0 0
blue 114 9 85 255 63 255
blue2 0 0 0 0 0 0
blue3 0 0 0 0 0 0
colored 0 0 0 0 0 0
green 66 8 100 176 51 228
green2 0 0 0 0 0 0
green3 0 0 0 0 0 0
orange 21 15 128 255 25 255
orange2 0 0 0 0 0 0
orange3 0 0 0 0 0 0
red 0 10 140 255 25 255
red2 3 4 105 217 14 143
red3 169 11 104 255 111 255
skin 1 16 20 128 25 255
white 90 90 0 120 200 255
yellow 23 11 126 222 244 255
yellow2 0 0 0 0 0 0
yellow3 0 0 0 0 0 0
